%!PS-Adobe-3.0
%%Title: CPT2.js
%%For: 1002007
%%Creator: VIM - Vi IMproved 8.2 (2019 Dec 12)
%%CreationDate: Tue Dec 14 08:41:17 2021
%%DocumentData: Clean8Bit
%%Orientation: Portrait
%%Pages: (atend)
%%PageOrder: Ascend
%%BoundingBox: 59 49 516 800
%%DocumentMedia: A4 595 842 0 () ()
%%DocumentNeededResources: font Courier
%%+ font Courier-Bold
%%+ font Courier-Oblique
%%+ font Courier-BoldOblique
%%DocumentSuppliedResources: procset VIM-Prolog 1.4 1
%%+ encoding VIM-latin1 1.0 0
%%Requirements: duplex collate color
%%EndComments
%%BeginDefaults
%%PageResources: font Courier
%%+ font Courier-Bold
%%+ font Courier-Oblique
%%+ font Courier-BoldOblique
%%PageMedia: A4
%%EndDefaults
%%BeginProlog
%%BeginResource: procset VIM-Prolog
%%BeginDocument: /usr/share/vim/vim82/print/prolog.ps
%!PS-Adobe-3.0 Resource-ProcSet
%%Title: VIM-Prolog
%%Version: 1.4 1
%%EndComments
% Editing of this file is NOT RECOMMENDED.  You run a very good risk of causing
% all PostScript printing from VIM failing if you do.  PostScript is not called
% a write-only language for nothing!
/packedarray where not{userdict begin/setpacking/pop load def/currentpacking
false def end}{pop}ifelse/CP currentpacking def true setpacking
/bd{bind def}bind def/ld{load def}bd/ed{exch def}bd/d/def ld
/db{dict begin}bd/cde{currentdict end}bd
/T true d/F false d
/SO null d/sv{/SO save d}bd/re{SO restore}bd
/L2 systemdict/languagelevel 2 copy known{get exec}{pop pop 1}ifelse 2 ge d
/m/moveto ld/s/show ld /ms{m s}bd /g/setgray ld/r/setrgbcolor ld/sp{showpage}bd
/gs/gsave ld/gr/grestore ld/cp/currentpoint ld
/ul{gs UW setlinewidth cp UO add 2 copy newpath m 3 1 roll add exch lineto
stroke gr}bd
/bg{gs r cp BO add 4 -2 roll rectfill gr}bd
/sl{90 rotate 0 exch translate}bd
L2{
/sspd{mark exch{setpagedevice}stopped cleartomark}bd
/nc{1 db/NumCopies ed cde sspd}bd
/sps{3 db/Orientation ed[3 1 roll]/PageSize ed/ImagingBBox null d cde sspd}bd
/dt{2 db/Tumble ed/Duplex ed cde sspd}bd
/c{1 db/Collate ed cde sspd}bd
}{
/nc{/#copies ed}bd
/sps{statusdict/setpage get exec}bd
/dt{statusdict/settumble 2 copy known{get exec}{pop pop pop}ifelse
statusdict/setduplexmode 2 copy known{get exec}{pop pop pop}ifelse}bd
/c{pop}bd
}ifelse
/ffs{findfont exch scalefont d}bd/sf{setfont}bd
/ref{1 db findfont dup maxlength dict/NFD ed{exch dup/FID ne{exch NFD 3 1 roll
put}{pop pop}ifelse}forall/Encoding findresource dup length 256 eq{NFD/Encoding
3 -1 roll put}{pop}ifelse NFD dup/FontType get 3 ne{/CharStrings}{/CharProcs}
ifelse 2 copy known{2 copy get dup maxlength dict copy[/questiondown/space]{2
copy known{2 copy get 2 index/.notdef 3 -1 roll put pop exit}if pop}forall put
}{pop pop}ifelse dup NFD/FontName 3 -1 roll put NFD definefont pop end}bd
CP setpacking
(\004)cvn{}bd
% vim:ff=unix:
%%EOF
%%EndDocument
%%EndResource
%%BeginResource: encoding VIM-latin1
%%BeginDocument: /usr/share/vim/vim82/print/latin1.ps
%!PS-Adobe-3.0 Resource-Encoding
%%Title: VIM-latin1
%%Version: 1.0 0
%%EndComments
/VIM-latin1[
/.notdef /.notdef /.notdef /.notdef /.notdef /.notdef /.notdef /.notdef
/.notdef /.notdef /.notdef /.notdef /.notdef /.notdef /.notdef /.notdef
/.notdef /.notdef /.notdef /.notdef /.notdef /.notdef /.notdef /.notdef
/.notdef /.notdef /.notdef /.notdef /.notdef /.notdef /.notdef /.notdef
/space /exclam /quotedbl /numbersign /dollar /percent /ampersand /quotesingle
/parenleft /parenright /asterisk /plus /comma /minus /period /slash
/zero /one /two /three /four /five /six /seven
/eight /nine /colon /semicolon /less /equal /greater /question
/at /A /B /C /D /E /F /G
/H /I /J /K /L /M /N /O
/P /Q /R /S /T /U /V /W
/X /Y /Z /bracketleft /backslash /bracketright /asciicircum /underscore
/grave /a /b /c /d /e /f /g
/h /i /j /k /l /m /n /o
/p /q /r /s /t /u /v /w
/x /y /z /braceleft /bar /braceright /asciitilde /.notdef
/.notdef /.notdef /.notdef /.notdef /.notdef /.notdef /.notdef /.notdef
/.notdef /.notdef /.notdef /.notdef /.notdef /.notdef /.notdef /.notdef
/.notdef /.notdef /.notdef /.notdef /.notdef /.notdef /.notdef /.notdef
/.notdef /.notdef /.notdef /.notdef /.notdef /.notdef /.notdef /.notdef
/space /exclamdown /cent /sterling /currency /yen /brokenbar /section
/dieresis /copyright /ordfeminine /guillemotleft /logicalnot /hyphen /registered /macron
/degree /plusminus /twosuperior /threesuperior /acute /mu /paragraph /periodcentered
/cedilla /onesuperior /ordmasculine /guillemotright /onequarter /onehalf /threequarters /questiondown
/Agrave /Aacute /Acircumflex /Atilde /Adieresis /Aring /AE /Ccedilla
/Egrave /Eacute /Ecircumflex /Edieresis /Igrave /Iacute /Icircumflex /Idieresis
/Eth /Ntilde /Ograve /Oacute /Ocircumflex /Otilde /Odieresis /multiply
/Oslash /Ugrave /Uacute /Ucircumflex /Udieresis /Yacute /Thorn /germandbls
/agrave /aacute /acircumflex /atilde /adieresis /aring /ae /ccedilla
/egrave /eacute /ecircumflex /edieresis /igrave /iacute /icircumflex /idieresis
/eth /ntilde /ograve /oacute /ocircumflex /otilde /odieresis /divide
/oslash /ugrave /uacute /ucircumflex /udieresis /yacute /thorn /ydieresis]
/Encoding defineresource pop
% vim:ff=unix:
%%EOF
%%EndDocument
%%EndResource
%%EndProlog
%%BeginSetup
595 842 0 sps
1 nc
T F dt
T c
%%IncludeResource: font Courier
/_F0 /VIM-latin1 /Courier ref
/F0 10 /_F0 ffs
%%IncludeResource: font Courier-Bold
/_F1 /VIM-latin1 /Courier-Bold ref
/F1 10 /_F1 ffs
%%IncludeResource: font Courier-Oblique
/_F2 /VIM-latin1 /Courier-Oblique ref
/F2 10 /_F2 ffs
%%IncludeResource: font Courier-BoldOblique
/_F3 /VIM-latin1 /Courier-BoldOblique ref
/F3 10 /_F3 ffs
/UO -1 d
/UW 0.5 d
/BO -2.5 d
%%EndSetup
%%Page: 1 1
%%BeginPageSetup
sv
0 g
F0 sf
%%EndPageSetup
F1 sf
(CPT2.js                                                                       Page 1)59.5 792.4 ms
F0 sf
0 0.498 0.498 r
(     1)59.5 772.4 ms
(const)107.5 772.4 ms
0 g
( readline = require\()s
0.498 0.125 0.498 r
('readline')s
0 g
(\).createInterface\()s
F1 sf
0.498 0.498 0 r
({)s
F0 sf
0 0.498 0.498 r
(     2)59.5 762.4 ms
0 g
(    input: process.stdin,   output: process.stdout)107.5 762.4 ms
0 0.498 0.498 r
(     3)59.5 752.4 ms
F1 sf
0.498 0.498 0 r
(})107.5 752.4 ms
F0 sf
0 g
(\))s
0 0.498 0.498 r
(     4)59.5 742.4 ms
(     5)59.5 732.4 ms
F1 sf
0.498 0.498 0 r
(function)107.5 732.4 ms
F0 sf
0 g
( ask\()s
0 0.498 0.498 r
(prompt)s
0 g
(\) )s
F1 sf
0.498 0.498 0 r
({)s
F0 sf
0 0.498 0.498 r
(     6)59.5 722.4 ms
(return)107.5 722.4 ms
0 g
( )s
0 0.498 0.498 r
(new)s
0 g
( Promise\(\(resolve, reject\) => )s
F1 sf
0.498 0.498 0 r
({)s
F0 sf
0 0.498 0.498 r
(     7)59.5 712.4 ms
0 g
(    readline.question\()107.5 712.4 ms
0 0.498 0.498 r
(prompt)s
0 g
(, input => resolve\(input\)\))s
0 0.498 0.498 r
(     8)59.5 702.4 ms
F1 sf
0.498 0.498 0 r
(})107.5 702.4 ms
F0 sf
0 g
(\))s
0 0.498 0.498 r
(     9)59.5 692.4 ms
F1 sf
0.498 0.498 0 r
(})107.5 692.4 ms
F0 sf
0 0.498 0.498 r
(    10)59.5 682.4 ms
(    11)59.5 672.4 ms
F1 sf
0.498 0.498 0 r
(function)107.5 672.4 ms
F0 sf
0 g
( randomNumber\(max\) )s
F1 sf
0.498 0.498 0 r
({)s
F0 sf
0 0.498 0.498 r
(    12)59.5 662.4 ms
0 g
(    )107.5 662.4 ms
0 0.498 0.498 r
(return)s
0 g
( Math.floor\(Math.random\(\) * max\))s
0 0.498 0.498 r
(    13)59.5 652.4 ms
F1 sf
0.498 0.498 0 r
(})107.5 652.4 ms
F0 sf
0 0.498 0.498 r
(    14)59.5 642.4 ms
(    15)59.5 632.4 ms
(    16)59.5 622.4 ms
(const)107.5 622.4 ms
0 g
( mList = )s
F1 sf
0.498 0.498 0 r
([)s
F0 sf
0.498 0.125 0.498 r
("tacos")s
0 g
(, )s
0.498 0.125 0.498 r
("buritos")s
0 g
(, )s
0.498 0.125 0.498 r
("tamales")s
0 g
(, )s
0.498 0.125 0.498 r
("quesadillas")s
0 g
(, )s
0.498 0.125 0.498 r
("chilaquiles")s
0 g
(, )s
0.498 0.125 0.498 r
("enchiladas")107.5 612.4 ms
0 g
(, )s
0.498 0.125 0.498 r
("fajitas")s
0 g
(,)s
0.498 0.125 0.498 r
("carne asada")s
0 g
(, )s
0.498 0.125 0.498 r
("Tostada")s
0 g
(, )s
0.498 0.125 0.498 r
("paellas")s
F1 sf
0.498 0.498 0 r
(])s
F0 sf
0 0.498 0.498 r
(    17)59.5 602.4 ms
(    18)59.5 592.4 ms
(const)107.5 592.4 ms
0 g
( cList = )s
F1 sf
0.498 0.498 0 r
([)s
F0 sf
0.498 0.125 0.498 r
("dumplings")s
0 g
(, )s
0.498 0.125 0.498 r
("noodles")s
0 g
(, )s
0.498 0.125 0.498 r
("kung pow chicken")s
0 g
(, )s
0.498 0.125 0.498 r
("hot pot")s
0 g
(, )s
0.498 0.125 0.498 r
("tofu")s
0 g
(, )107.5 582.4 ms
0.498 0.125 0.498 r
("steamed buns")s
0 g
(, )s
0.498 0.125 0.498 r
("black fungus")s
0 g
(, )s
0.498 0.125 0.498 r
("Chinese crepes")s
0 g
(, )s
0.498 0.125 0.498 r
("fried rice")s
0 g
(, )s
0.498 0.125 0.498 r
("Peking du)s
(ck")107.5 572.4 ms
F1 sf
0.498 0.498 0 r
(])s
F0 sf
0 0.498 0.498 r
(    19)59.5 562.4 ms
(    20)59.5 552.4 ms
(const)107.5 552.4 ms
0 g
( aList = )s
F1 sf
0.498 0.498 0 r
([)s
F0 sf
0.498 0.125 0.498 r
("steak")s
0 g
(, )s
0.498 0.125 0.498 r
("hamburgers")s
0 g
(, )s
0.498 0.125 0.498 r
("hot dogs")s
0 g
(, )s
0.498 0.125 0.498 r
("cornbread")s
0 g
(, )s
0.498 0.125 0.498 r
("corn on the )s
(cob")107.5 542.4 ms
0 g
(, )s
0.498 0.125 0.498 r
("apple pie")s
0 g
(, )s
0.498 0.125 0.498 r
("cheesecake")s
0 g
(, )s
0.498 0.125 0.498 r
("pizza")s
0 g
(, )s
0.498 0.125 0.498 r
("barbecue")s
0 g
(, )s
0.498 0.125 0.498 r
("fried chicken")s
F1 sf
0.498 0.498 0 r
(])s
F0 sf
0 0.498 0.498 r
(    21)59.5 532.4 ms
(    22)59.5 522.4 ms
(const)107.5 522.4 ms
0 g
( iList = )s
F1 sf
0.498 0.498 0 r
([)s
F0 sf
0.498 0.125 0.498 r
("pizza")s
0 g
(, )s
0.498 0.125 0.498 r
("caprese salad")s
0 g
(, )s
0.498 0.125 0.498 r
("lasagna")s
0 g
(, )s
0.498 0.125 0.498 r
("ravioli")s
0 g
(, )s
0.498 0.125 0.498 r
("tortellini")s
0 g
(,)s
( )107.5 512.4 ms
0.498 0.125 0.498 r
("tiramisu")s
0 g
(, )s
0.498 0.125 0.498 r
("gelato")s
0 g
(, )s
0.498 0.125 0.498 r
("a cappucino")s
0 g
(, )s
0.498 0.125 0.498 r
("spaghetti")s
0 g
(, )s
0.498 0.125 0.498 r
("risotto")s
F1 sf
0.498 0.498 0 r
(])s
F0 sf
0 0.498 0.498 r
(    23)59.5 502.4 ms
(    24)59.5 492.4 ms
0 g
(question\(\))107.5 492.4 ms
0 0.498 0.498 r
(    25)59.5 482.4 ms
(    26)59.5 472.4 ms
(async)107.5 472.4 ms
0 g
( )s
F1 sf
0.498 0.498 0 r
(function)s
F0 sf
0 g
( question\(\))s
F1 sf
0.498 0.498 0 r
({)s
F0 sf
0 0.498 0.498 r
(    27)59.5 462.4 ms
F1 sf
0.498 0.498 0 r
(let)107.5 462.4 ms
F0 sf
0 g
( foodType = )s
0 0.498 0.498 r
(await)s
0 g
( ask \()s
0.498 0.125 0.498 r
("What type of food would you like to eat?\(Mexican,)s
( Chinese, American, Italian\) ")107.5 452.4 ms
0 g
(\))s
0 0.498 0.498 r
(    28)59.5 442.4 ms
(switch)107.5 442.4 ms
0 g
( \(foodType.toLowerCase\(\)\))s
F1 sf
0.498 0.498 0 r
({)s
F0 sf
0 0.498 0.498 r
(    29)59.5 432.4 ms
0 g
(    )107.5 432.4 ms
0 0.498 0.498 r
(case)s
0 g
( )s
0.498 0.125 0.498 r
("mexican")s
0 g
(:)s
0 0.498 0.498 r
(    30)59.5 422.4 ms
0 g
(        console.log\()107.5 422.4 ms
0.498 0.125 0.498 r
("Try ")s
0 g
( + mList)s
F1 sf
0.498 0.498 0 r
([)s
F0 sf
0 g
(randomNumber\(mList.length\))s
F1 sf
0.498 0.498 0 r
(])s
F0 sf
0 g
( + )s
0.498 0.125 0.498 r
(".")s
0 g
(\))s
0 0.498 0.498 r
(    31)59.5 412.4 ms
0 g
(        )107.5 412.4 ms
0 0.498 0.498 r
(break)s
(    32)59.5 402.4 ms
0 g
(    )107.5 402.4 ms
0 0.498 0.498 r
(case)s
0 g
( )s
0.498 0.125 0.498 r
("chinese")s
0 g
(:)s
0 0.498 0.498 r
(    33)59.5 392.4 ms
0 g
(        console.log\()107.5 392.4 ms
0.498 0.125 0.498 r
("Try ")s
0 g
( + cList)s
F1 sf
0.498 0.498 0 r
([)s
F0 sf
0 g
(randomNumber\(cList.length\))s
F1 sf
0.498 0.498 0 r
(])s
F0 sf
0 g
( + )s
0.498 0.125 0.498 r
(".")s
0 g
(\))s
0 0.498 0.498 r
(    34)59.5 382.4 ms
0 g
(        )107.5 382.4 ms
0 0.498 0.498 r
(break)s
(    35)59.5 372.4 ms
0 g
(    )107.5 372.4 ms
0 0.498 0.498 r
(case)s
0 g
( )s
0.498 0.125 0.498 r
("american")s
0 g
(:)s
0 0.498 0.498 r
(    36)59.5 362.4 ms
0 g
(        console.log\()107.5 362.4 ms
0.498 0.125 0.498 r
("Try ")s
0 g
( + aList)s
F1 sf
0.498 0.498 0 r
([)s
F0 sf
0 g
(randomNumber\(aList.length\))s
F1 sf
0.498 0.498 0 r
(])s
F0 sf
0 g
( + )s
0.498 0.125 0.498 r
(".")s
0 g
(\))s
0 0.498 0.498 r
(    37)59.5 352.4 ms
0 g
(        )107.5 352.4 ms
0 0.498 0.498 r
(break)s
(    38)59.5 342.4 ms
0 g
(    )107.5 342.4 ms
0 0.498 0.498 r
(case)s
0 g
( )s
0.498 0.125 0.498 r
("italian")s
0 g
(:)s
0 0.498 0.498 r
(    39)59.5 332.4 ms
0 g
(        console.log\()107.5 332.4 ms
0.498 0.125 0.498 r
("Try ")s
0 g
( + iList)s
F1 sf
0.498 0.498 0 r
([)s
F0 sf
0 g
(randomNumber\(iList.length\))s
F1 sf
0.498 0.498 0 r
(])s
F0 sf
0 g
( + )s
0.498 0.125 0.498 r
(".")s
0 g
(\))s
0 0.498 0.498 r
(    40)59.5 322.4 ms
0 g
(        )107.5 322.4 ms
0 0.498 0.498 r
(break)s
(    41)59.5 312.4 ms
F1 sf
0.498 0.498 0 r
(})107.5 312.4 ms
F0 sf
0 0.498 0.498 r
(    42)59.5 302.4 ms
0 g
(end\(\))107.5 302.4 ms
0 0.498 0.498 r
(    43)59.5 292.4 ms
F1 sf
0.498 0.498 0 r
(})107.5 292.4 ms
F0 sf
0 0.498 0.498 r
(    44)59.5 282.4 ms
(    45)59.5 272.4 ms
(async)107.5 272.4 ms
0 g
( )s
F1 sf
0.498 0.498 0 r
(function)s
F0 sf
0 g
( end\(\))s
F1 sf
0.498 0.498 0 r
({)s
F0 sf
0 0.498 0.498 r
(    46)59.5 262.4 ms
F1 sf
0.498 0.498 0 r
(let)107.5 262.4 ms
F0 sf
0 g
( endQ = )s
0 0.498 0.498 r
(await)s
0 g
( ask \()s
0.498 0.125 0.498 r
("Do you want another recomendation?\(Y, N\) ")s
0 g
(\))s
0 0.498 0.498 r
(    47)59.5 252.4 ms
(switch)107.5 252.4 ms
0 g
( \(endQ.toLowerCase\(\)\))s
F1 sf
0.498 0.498 0 r
({)s
F0 sf
0 0.498 0.498 r
(    48)59.5 242.4 ms
0 g
(    )107.5 242.4 ms
0 0.498 0.498 r
(case)s
0 g
( )s
0.498 0.125 0.498 r
("y")s
0 g
(:)s
0 0.498 0.498 r
(    49)59.5 232.4 ms
0 g
(        question\(\))107.5 232.4 ms
0 0.498 0.498 r
(    50)59.5 222.4 ms
0 g
(        )107.5 222.4 ms
0 0.498 0.498 r
(break)s
(    51)59.5 212.4 ms
0 g
(    )107.5 212.4 ms
0 0.498 0.498 r
(case)s
0 g
( )s
0.498 0.125 0.498 r
("n")s
0 g
(:)s
0 0.498 0.498 r
(    52)59.5 202.4 ms
0 g
(        process.exit\(\))107.5 202.4 ms
0 0.498 0.498 r
(    53)59.5 192.4 ms
F1 sf
0.498 0.498 0 r
(})107.5 192.4 ms
F0 sf
0 g
(       )s
0 0.498 0.498 r
(    54)59.5 182.4 ms
F1 sf
0.498 0.498 0 r
(})107.5 182.4 ms
re sp
%%PageTrailer
%%Trailer
%%Pages: 1
%%EOF
